http://es.wuaki.tv/movies/push
http://nubeox.com/pelicula/push/1985528
http://nubeox.com/pelicula/push/1985528
https://itunes.apple.com/movie/push-2009/id406065862
http://vk.com/video_ext.php?oid=191353868&id=165978082&hash=d099495d0378e43e&hd=2
http://allmyvideos.net/tryinsm7zdtv
http://vk.com/video_ext.php?oid=145083867&id=163066588&hash=51ffd66caf80a812&hd=2
http://allmyvideos.net/4sqyd6ynwr0u
http://stagevu.com/video/qimrtmqwsjpj
http://vk.com/video_ext.php?oid=114355493&id=162825253&hash=83f611ad718f3da5&hd=1
http://www.vidspot.net/ibcj6qp7t7fj
http://streamcloud.eu/t5inyrn2tqci
http://streamcloud.eu/w3jp1sf096g4
http://vk.com/video_ext.php?oid=174458506&id=163258779&hash=b4a6d814fc49ea7a&hd=2
http://vk.com/video_ext.php?oid=164730209&id=162599189&hash=bde943ef505168ee&hd=1
http://vk.com/video_ext.php?oid=149623387&id=162524481&hash=785279936847e831&hd=1
http://allmyvideos.net/0pjdo42zjns1
http://allmyvideos.net/udu0f44bn491
http://www.nowvideo.eu/video/585d03975d2be
http://vk.com/video_ext.php?oid=199168775&id=165668983&hash=b2ff882868fe2651&hd=1
http://vk.com/video_ext.php?oid=149623387&id=162524481&hash=785279936847e831
http://vk.com/video_ext.php?oid=199168775&id=165668975&hash=bb5415a10338dce2&hd=1
http://uploaded.to/file/t5xvtfzk
http://uploaded.to/file/wpnls5ib
http://uploaded.to/file/zr2otd4k
http://uploaded.to/file/8ujz1aw4
http://sockshare.com/file/GK80DD9JMXSGOG
http://sockshare.com/file/5MKYURZAJLOGOK
http://sockshare.com/file/6ZK3V3FDG2CCKGK
http://sockshare.com/file/487C3FACE6784D4B
http://letitbit.net/download/72050.7b58c9b89fb8a448d095a73d19ed/pus.dvdrip.p.avi.html
http://letitbit.net/download/32254.343ba3d03581cc3545cf4cc6c2b5/diam.d.sang.dvdrip.p.avi.html
http://letitbit.net/download/09922.0d13e48091b77f4051d5582a4d50/Push_BR-rip.avi.html
http://letitbit.net/download/http://letitbit.net//download/56338.56eaaecf409ede4031280c388d8c/Push_DVD-rip.avi.html
