http://vk.com/video_ext.php?oid=183577495&id=164574074&hash=1b2011289ed4dbe8&hd=2
http://youtube.com/watch?v=LjW4kOVRUgk
http://vk.com/video_ext.php?oid=183577495&id=164574074&hash=1b2011289ed4dbe8&hd=2
http://youtube.com/watch?v=fnE0HI1qGcU
http://mediafire.com/download/5ukm1dejxjvebf3
