http://es.wuaki.tv/movies/big-nothing
http://es.wuaki.tv/movies/big-nothing
http://allmyvideos.net/nf8k5o7hlkrl
http://played.to/ogtpi5nql1fz
http://played.to/efr1wwy86chz
http://allmyvideos.net/uwiah1jyzo4m
http://vk.com/video_ext.php?oid=43656043&id=147979193&hash=efad6adbc40730e3&hd=1\" width=\"607\" height=\"360\" frameborder=\"0\">
http://vk.com/video_ext.php?oid=152152401&id=161247327&hash=fcec971e34b80830&hd=1\" width=\"607\" height=\"360\" frameborder=\"0\">
http://allmyvideos.net/zn1o2kbpb51y
http://vk.com/video_ext.php?oid=168820960&id=162903817&hash=37795a4a61d8a897&hd=1\" width=\"607\" height=\"360\" frameborder=\"0\">
http://uploaded.to/file/uz13x4ig
