http://mitele.es/video/popup/44205/22
http://mitele.es/video/popup/44205/78535334535345435353534534
http://mitele.es/video/popup/44205/78531/
http://mitele.es/video/popup/44205/88/
http://telecinco.es/laqueseavecina/capitulos-integros/t06xc1-maruja-entrecejo-pionero-aire_2_1486305078.html
http://mitele.es/video/popup/44205/7824562/
http://mitele.es/video/popup/44205/7654658/
http://mitele.es/video/popup/44205/784567534/
http://mitele.es/video/popup/44205/7854634653/
http://mitele.es/video/popup/44205/7453663458/
http://mitele.es/video/popup/44205/7825463753/
http://mitele.es/video/popup/44205/78645353/
http://mitele.es/video/popup/44205/724653658/
http://mitele.es/video/popup/44205/74256328/
http://mitele.es/video/popup/44205/7876548/
http://mitele.es/video/popup/44205/7887787/
http://mitele.es/video/popup/44205/789876/
http://mitele.es/video/popup/44205/78856778456/
http://mitele.es/video/popup/44205/78875684/
http://mitele.es/video/popup/44205/787546/
http://mitele.es/video/popup/44205/787653/
http://mitele.es/video/popup/44205/733456758/
http://mitele.es/video/popup/44205/75347658/
http://mitele.es/video/popup/44205/7765348/
http://mitele.es/video/popup/44205/724563573548/
http://mitele.es/video/popup/44205/7753658678/
http://mitele.es/video/popup/44205/788657845635/
http://mitele.es/video/popup/44205/7436735468/
http://mitele.es/video/popup/44205/786753636574/
http://mitele.es/video/popup/44205/787654684657/
http://mitele.es/video/popup/44205/785676745/
http://mitele.es/video/popup/44205/78785365/
http://mitele.es/video/popup/44205/78653745367/
http://mitele.es/video/popup/44205/78568765473875/
http://mitele.es/video/popup/44205/7848563745633/
http://mitele.es/video/popup/44205/78756356853/
http://mitele.es/video/popup/44205/78456374635427/
http://mitele.es/video/popup/44205/78538677674/
http://mitele.es/video/popup/44205/7375465367458/
http://mitele.es/video/popup/44205/76574684785638/
http://mitele.es/video/popup/44205/78657435453678/
http://mitele.es/video/popup/44205/7885674753647/
http://mitele.es/video/popup/44205/78653746847685/
http://mitele.es/video/popup/44205/785637845367/
http://mitele.es/video/popup/44205/787656735/
http://mitele.es/video/popup/44205/7846573575637/
http://mitele.es/video/popup/44205/7836857465/
http://mitele.es/video/popup/44205/786573863745/
http://mitele.es/video/popup/44205/7874856334365/
http://mitele.es/video/popup/44205/78653476578/
http://mitele.es/video/popup/44205/787456385674/
http://mitele.es/video/popup/44205/7885347658/
http://mitele.es/video/popup/44205/788356475867/
http://mitele.es/video/popup/44205/7845634568378/
http://mitele.es/video/popup/44205/7856387536/
http://mitele.es/video/popup/44205/78856567346/
http://mitele.es/video/popup/44205/7853674655867/
http://mitele.es/video/popup/44205/785637453678/
http://mitele.es/video/popup/44205/7563876735468/
http://mitele.es/video/popup/44205/784536745837/
http://mitele.es/video/popup/44205/7886575436/
http://mitele.es/video/popup/44205/7833667456/
http://mitele.es/video/popup/44205/7853676547/
http://mitele.es/video/popup/44205/783257667546/
http://mitele.es/video/popup/44205/781/
http://mitele.es/video/popup/44205/782/
http://mitele.es/video/popup/44205/783/
http://mitele.es/video/popup/44205/784/
http://mitele.es/video/popup/44205/785/
http://mitele.es/video/popup/44205/786/
http://mitele.es/video/popup/44205/787/
http://mitele.es/video/popup/44205/789/
http://mitele.es/video/popup/44205/780/
http://mitele.es/video/popup/44205/7811/
http://mitele.es/video/popup/44205/782134/
http://mitele.es/video/popup/44205/7821341234/
http://mitele.es/video/popup/44205/78213413/
http://mitele.es/video/popup/44205/781234342/
http://mitele.es/video/popup/44205/7452318/
http://mitele.es/video/popup/44205/786545/
http://mitele.es/video/popup/44205/7854765/
http://mitele.es/video/popup/44205/746753468/
http://mitele.es/video/popup/44205/7356735678/
http://mitele.es/video/popup/44205/73567358/
http://mitele.es/video/popup/44205/753678/
http://mitele.es/video/popup/44205/78786664/
http://mitele.es/video/popup/44205/7875468/
http://mitele.es/video/popup/44205/78768457/
http://mitele.es/video/popup/44205/78678456/
http://mitele.es/video/popup/44205/7847584567/
http://mitele.es/video/popup/44205/78467854/
http://mitele.es/video/popup/44205/782465453/
http://mitele.es/video/popup/44205/78456236/
http://mitele.es/video/popup/44205/787654/
http://mitele.es/video/popup/44205/78456543/
http://mitele.es/video/popup/44205/78754635665/
http://mitele.es/video/popup/44205/756745235268/
http://mitele.es/video/popup/44205/754654758/
http://mitele.es/video/popup/44205/76543268/
http://mitele.es/video/popup/44205/78345637554/
http://mitele.es/video/popup/44205/776558/
http://mitele.es/video/popup/44205/784652366/
http://mitele.es/video/popup/44205/78896756434/
http://mitele.es/video/popup/44205/78986789/
http://mitele.es/video/popup/44205/7868975/
http://mitele.es/video/popup/44205/7878966/
http://mitele.es/video/popup/44205/728/
http://mitele.es/video/popup/44205/738/
http://mitele.es/video/popup/44205/748/
http://mitele.es/video/popup/44205/758/
http://mitele.es/video/popup/44205/768/
http://mitele.es/video/popup/44205/778/
http://mitele.es/video/popup/44205/788/
http://mitele.es/video/popup/44205/798/
http://mitele.es/video/popup/44205/7118/
http://mitele.es/video/popup/44205/7822/
http://mitele.es/video/popup/44205/7833/
http://mitele.es/video/popup/44205/7844/
http://mitele.es/video/popup/44205/7855/
http://mitele.es/video/popup/44205/7866/
http://mitele.es/video/popup/44205/7877/
http://mitele.es/video/popup/44205/7888/
http://mitele.es/video/popup/44205/7899/
http://mitele.es/video/popup/44205/7800/
http://mitele.es/video/popup/44205/78111/
http://mitele.es/video/popup/44205/78222/
http://mitele.es/video/popup/44205/78333/
http://mitele.es/video/popup/44205/78444/
http://mitele.es/video/popup/44205/78/
http://mitele.es/video/popup/44205/18/
http://telecinco.es/laqueseavecina/_2_1486305078.html
http://mitele.es/video/popup/44205/29.39/
http://mitele.es/series-online/la-que-se-avecina/temporada-6/capitulo-68/
http://www.vidspot.net/d6fypnr6utfz
http://allmyvideos.net/kmlq6j42yb0b
http://www.novamov.com/video/q8f73t9g6tjjg
http://www.nowvideo.eu/video/505c28c2a2a0e
http://www.nowvideo.eu/video/f1ef99217cb20
http://streamin.to/0wruse7u40s5
http://www.nowvideo.eu/video/ahyu4wldqa5v5
http://vk.com/video_ext.php?oid=170324159&id=164283046&hash=ae9a2619b6e55b46
http://www.nowvideo.eu/video/4a367bfc33462
http://www.nowvideo.eu/video/19hjrpx7emvhh
http://vk.com/video_ext.php?oid=161417227&id=163235307&hash=c2a66e5ec7b80605&hd=1%22%20width=%22607%22%20height=%22360%22%20frameborder=%220%22%3E%3C/iframe%3E
http://www.nowvideo.eu/video/927c4740051f3
http://www.vidspot.net/fe241ch9rbet
http://www.nowvideo.eu/video/6b17e3a2c4886
http://vk.com/video_ext.php?oid=182842639&id=163584445&hash=e682d81bcb6865c7&hd=1%22%20width=%22607%22%20height=%22360%22%20frameborder=%220%22%3E%3C/iframe%3E
http://played.to/tb79v0je5x23
http://www.nowvideo.eu/video/94eed7666fb65
http://played.to/mkjdakzpz7or
http://www.vidspot.net/snnxpvy5deg3
http://www.vidspot.net/h6uwygm6wszr
http://www.nowvideo.eu/video/f640a7e1821db
http://allmyvideos.net/h067rc3eh1mh
http://www.videoweed.es/file/z7wrcusk8f2x3
http://vk.com/video_ext.php?oid=168315393&id=163500464&hash=a094b7d793c4623e&hd=4
http://allmyvideos.net/8idi4xvqht2k
http://vk.com/video_ext.php?oid=176508337&id=163423832&hash=3b5a34a38e2a84e7&sd
http://allmyvideos.net/miej3rpt0drr
http://streamcloud.eu/gqe16b4e665k
http://www.vidspot.net/qvyd7kmavliq
http://vk.com/video_ext.php?oid=171294376&id=163480006&hash=067b57e914efbecb&hd=1
http://played.to/0xcbuyel1n5l
http://streamin.to/r88h2pfto5kn
http://www.vidspot.net/3cocvyettnrn
http://streamin.to/cgewlphm511a
http://vk.com/video_ext.php?oid=170324159&id=164283046&hash=ae9a2619b6e55b46&hd=1
http://vk.com/video_ext.php?oid=161417227&id=163235307&hash=c2a66e5ec7b80605
http://www.movshare.net/video/hhvrb5g80lkeh
http://played.to/8bxb85htchc0
http://www.nowvideo.eu/video/5c8d5e4504f06
http://vk.com/video_ext.php?oid=168315393&id=163500464&hash=a094b7d793c4623e&hd=4
http://www.nowvideo.eu/video/0ba6fc4d225fe
http://www.vidspot.net/86813kjpa32c
http://streamcloud.eu/dfk6kmmwtfnt
http://www.nowvideo.eu/video/s4o4mbyk5bcju
http://played.to/4qeks1rw12pc
http://streamcloud.eu/e5hog27fyoch
http://vk.com/video_ext.php?oid=178738165&id=163759002&hash=99d1813a6479c08c&hd=
http://allmyvideos.net/pujafhwlbcnz
http://www.nowvideo.eu/video/d3b1061392f86
http://played.to/t2pxi0fbznmz
http://www.nowvideo.eu/video/fbb5481cdb178
http://streamin.to/7jmyuh3hb24f
http://www.vidspot.net/4spxyj6stpt2
http://streamcloud.eu/hgon9oiqjlss
http://streamcloud.eu/nn9f5fhxzvkv
http://www.nowvideo.eu/video/fd92a7bb46392
http://www.vidspot.net/ea7abi3qamq6
http://www.nowvideo.eu/video/b317beb637755
http://allmyvideos.net/arwnt85yfn5f
http://streamcloud.eu/y7ybaqh8ib9j
http://streamcloud.eu/s9cu3kylllhj
http://www.vidspot.net/z0nnaj7hbtjh
http://www.vidspot.net/b4pncwx9marw
http://vk.com/video_ext.php?oid=161417227&id=163235307&hash=c2a66e5ec7b80605&hd=1
http://www.nowvideo.eu/video/078h8j3gxa2q5
http://streamin.to/akwqrpeu3nfj
http://allmyvideos.net/g809waqp8qy1
http://vk.com/video_ext.php?oid=178738165&id=163759002&hash=99d1813a6479c08c&hd=1
http://vk.com/video_ext.php?oid=176508337&id=163423832&hash=3b5a34a38e2a84e7&sd
http://www.vidspot.net/24b0ncf1praz
http://vk.com/video_ext.php?oid=169896276&id=163408650&hash=1046abc163b48f32&hd=1
http://vk.com/video_ext.php?oid=161502687&id=163313640&hash=372a555a45c3ae66&hd=1
http://vk.com/video_ext.php?oid=168315393&id=163500464&hash=a094b7d793c4623e&hd=1
http://streamcloud.eu/6s1xo8499dms
http://www.vidspot.net/go8tg1nuannj
http://streamin.to/98w42djxjyzp
http://www.nowvideo.eu/video/8a68128b983d9
http://www.nowvideo.eu/video/72142ac1a8c30
http://www.uploadable.ch/file/ZvGDQEJtpsBT
http://www.uploadable.ch/file/qrdRy5yRZ64X
http://mega.co.nz/#!A4lkxLST!bMVsc0gvDMJ8R0YKW0bEuAKOkaRRjszIKzO09VZUNfc
http://firedrive.com/file/98E0F71CA971A61C
http://firedrive.com/file/9EB80F25F5AFB812
http://firedrive.com/file/110AD866E84AFC30#
http://uploaded.to/file/o0o3lmi1
http://bitshare.com/?f=f4ldpwvj
http://freakshare.com/files/ce97tbnp/L.Q.S.Vcn..6x01_ByBorju.avi.html
http://uploaded.to/file/p3oiqha2
http://dfiles.eu/files/cgfuxf9m2
http://uploaded.to/file/6tnorjci
http://bitshare.com/?f=x4eh0f3m
http://freakshare.com/files/xa93g3ys/LQSA.6x01.DVDR.Castellano.avi.html
http://bitshare.com/?f=zdo4ushg
http://rapidgator.net/file/44637511db529310b8094a80c03e4367/Ave_cina_2_
http://bitshare.com/?f=03uu13vo
http://bitshare.com/?f=3cm5tbw9
http://uploaded.to/file/nc78i5gs
http://freakshare.com/files/ynr9ouit/Avecina.6X01.Cast.ww.avi.html
http://letitbit.net/download/51716.5e35e3047f11ba7ef18e74a0b223/Avecina.6X01.Cast.ww.avi.html
http://turbobit.net/7qbgunowyw4c.html
http://bitshare.com/?f=xqrymns9
http://bitshare.com/?f=pb8ee974
http://bitshare.com/?f=lmpgpbvk
http://bitshare.com/?f=gl9au6xc
http://freakshare.com/files/afc5q51q/LQSA601.DVBRip.Spa.byeKeR.avi.html
http://freakshare.com/files/6617iqge/LQSA601.DVBRip.Spa.byeKeR.avi.html
http://bitshare.com/?f=n3ctmaxu
http://letitbit.net/download/24294.2b3c1cb8b1db966c633903b191cd/La_Que_Se_Avecina_-_Temp.6__HDTV__Cap.601__by_sobrenatural.avi.html
http://turbobit.net/lnl3hoo3ibvz.html
http://uploaded.to/file/kgoof6qc
http://freakshare.com/files/uuvxg1d7/La_que_se_avecina_601.avi.html
http://letitbit.net/download/20255.2b3c1cb8b1db966c633903b191cd/La_Que_Se_Avecina_-_Temp.6__HDTV__Cap.601__by_sobrenatural.avi.html
http://bitshare.com/?f=rf3u0i4w
http://dfiles.eu/files/nv3ckmggz
http://bitshare.com/?f=zbyix8z2
http://freakshare.com/files/bwyb0stn/La-Que-Se-Avecina.6X01-jem.rar.html
http://bitshare.com/?f=0v6e3im9
http://uploaded.to/file/z9nvmi0y
http://dfiles.eu/files/t93fj48z0
http://dfiles.eu/files/v4egqfw3k
http://shareflare.net/download/00065.0ad0056105e76fa37fbc3abeb231/series.ly.html
http://dfiles.eu/files/okhpztvx7
http://turbobit.net/6in0bdi9jcs8.html
http://shareflare.net/download/05156.0ad0056105e76fa37fbc3abeb231/series.ly.html
http://letitbit.net/download/41417.49de97b35f2aafa6b4cfbe93e6a0/La_Que_Se_Avecina_-_Temp.6__HDTV__Cap.601__Espanol_Castellano_.avi.html
http://dfiles.eu/files/54x72n90m
http://shareflare.net/download/08481.0fa9f28a3a473d223077f066e7d0/series.ly.html
