/scripts/info/ganaPuntos.php?ref=nopoints&e=802&mediaType=2
http://vk.com/video_ext.php?oid=145083867&id=164180376&hash=09d46b7b7fe480d6&hd=1
http://vk.com/video_ext.php?oid=161548814&id=163700738&hash=1993dc9c4d2b0014&hd=1
http://vk.com/video_ext.php?oid=161548814&id=163700741&hash=a1899c2c624b954b&hd=1
http://firedrive.com/file/75E31164EC01D6EE
