http://vk.com/video_ext.php?oid=210581296&id=168081445&hash=57fcacbe4cee6ff6&hd=3
http://vk.com/video_ext.php?oid=207856430&id=168012037&hash=6f83d264f7aca20c&hd=3
http://vk.com/video_ext.php?oid=210581296&id=168079899&hash=2df667ca6eee504a&hd=1
http://mega.co.nz/#!1goRAJJL!ovi-pS1GGCIHM0gfQKPzARxmDMYFkg6iFZwpIxnwmDQ
http://mega.co.nz/#!FhI2RKCS!ZBI-sEbnEA1hLuUzRAmkDRK407DI_fkrkZ-bvcju3xI
