http://rtve.es/alacarta/videos/pelotas/pelotas-t2-capitulo-22/781042
http://rtve.es/alacarta/videos/pelotas/pelotas-t2-capitulo-22/781042/
http://vk.com/video_ext.php?oid=172106163&id=164208256&hash=f1e548fe32992b49&hd=1
