http://vk.com/video_ext.php?oid=171938687&id=166210213&hash=7397540238d6959b&hd=1
http://www.novamov.com/video/ylwfe38ezrnv3
http://mega.co.nz/#!2NgwHRrL!IUH0jWGLxndoHQIyRe7Xqx-wk6QfZ3Q5ElBoJVvEFs4
http://firedrive.com/file/0ED7974E1139626E
