http://vk.com/video_ext.php?oid=185846714&id=169096937&hash=2a8d883f6369b59e&hd=1
http://vk.com/video_ext.php?hash=c9be404d8b6fcd48
http://played.to/7kxpgogqoy9f
http://streamcloud.eu/6tlidwehc2dt
http://vk.com/video_ext.php?oid=241127522&id=169005224&hash=0edcc71ac14d9ad4&hd=2
http://vk.com/video_ext.php?oid=207856430&id=169000445&hash=7549d7e7240f2b8d&hd=3
