/scripts/info/ganaPuntos.php?ref=nopoints&e=802&mediaType=2
http://vk.com/video_ext.php?oid=161996382&id=162551316&hash=339bf7424f7548c0&hd=1\" width=\"607\" height=\"360\" frameborder=\"0\">
http://youtube.com/watch?v=LiVZQ944WaM
http://dfiles.eu/files/u1x050b85
