http://allmyvideos.net/zzsa72j2zd6c
http://vk.com/video_ext.php?oid=206662647&id=165975926&hash=a4a1b71fcb04a454&hd=1
http://vk.com/video_ext.php?oid=187140468&id=166546284&hash=dd3327c99171e9c8&hd=1
