/scripts/info/ganaPuntos.php?ref=nopoints&e=802&mediaType=2
http://vk.com/video_ext.php?oid=170756134&id=164169680&hash=d2c9a592202fd2bd&hd=1
http://vk.com/video_ext.php?oid=229818137&id=167746680&hash=f85ab4825873046a&hd=1
http://allmyvideos.net/x1fay6vjaydw
