http://vk.com/video_ext.php?oid=207856430&id=167503656&hash=26610860e0b6a5c8&hd=3
http://vk.com/video_ext.php?oid=171938687&id=167521910&hash=dffa5264d8e68e60&hd=2
http://vk.com/video_ext.php?oid=207856430&id=167503656&hash=26610860e0b6a5c8&hd=2
http://vk.com/video_ext.php?oid=241127522&id=167550718&hash=933d1a49b2e1a31c&hd=2
http://played.to/f1xg3q0o1asp
http://mega.co.nz/#!6QYhCSbJ!B9JjROBSRe1nPloGVUE_y_lpYNdyKtPoWsiUh1DKM8Y
http://mega.co.nz/#!tIU2QYLC!XkbWr-FqUdyC-XqJx5tJlfYP8gJ0qxYg78QpCU-IuTw
http://mediafire.com/download/2nzb7u23oymmgiu/animuchotora7.exe
http://sendspace.com/file/qp668c
http://2shared.com/file/86Zcko7H/1219_7.html
http://uploaded.to/file/8lgtnvf0
http://freakshare.com/files/9rlzbwrb/1219_7.mp4.html
http://dfiles.eu/files/xqi0urwqs
