http://youtube.com/watch?v=qt1TDEedUpY
http://vk.com/video_ext.php?oid=221728642&id=166033779&hash=03a431f699377bc5&hd=2
http://firedrive.com/file/B8E214F08FEF232D
http://freakshare.com/files/l5uy801m/TZF_Bla_04.rar.html
