/scripts/info/invalid_link.php
http://vk.com/video_ext.php?oid=164767529&id=162345621&hash=3c205c584680d3cb&hd=1\" width=\"607\" height=\"360\" frameborder=\"0\">
http://vk.com/video_ext.php?oid=164767529&id=162345621&hash=3c205c584680d3cb&hd=1
http://youtube.com/watch?v=8rUxMa-MS4E
http://letitbit.net/download/81223.85451654c3c1a246d1a6f1e1852c/http___letitbit.net_download_89588.85451654c3c1a246d1a6f1e1852c_Eclipse.Total.1995.avi.html.html
http://dfiles.eu/files/5hrbmux4u
