http://vk.com/video_ext.php?hash=396e36ba31317f47
http://streamcloud.eu/xpdxgkd4rf7e
http://vk.com/video_ext.php?oid=241127522&id=168287738&hash=e10958ffb79a661e&hd=2
http://played.to/j8umyyfkt0ja
http://firedrive.com/file/8B04D4E3760E8661
