http://vk.com/video_ext.php?oid=187140468&id=167763771&hash=2103f176f4023d06&hd=1
http://vk.com/video_ext.php?video161816932_164166286?hash=6c97cf8bd8fe561a
http://youtube.com/watch?v=4DbaoWHJz4c
http://bitshare.com/?f=0ezynnnl
http://bitshare.com/?f=m7ywuyok
http://uploaded.to/file/lu2j7xgt/from/if1azz
